Polarization of Light 'Brewsters' Data File Fri, Mar 26, 2021 3:06 PM
Sensor Position (Degrees)	Light Intensity (Volts)
180.00000	4.33295
180.00000	4.33182
180.00000	4.32876
180.00000	4.33247
180.00000	4.33456
180.00000	4.33360
180.00000	4.33198
180.00000	4.33360
180.00000	4.33134
180.00000	4.33070
180.00000	4.32667
180.00000	4.32747
180.00000	4.33295
180.00000	4.33215
180.00000	4.32780
180.00000	4.33053
180.00000	4.33037
180.00000	4.32892
180.00000	4.33327
180.00000	4.33150
180.00000	4.33263
180.00000	4.32876
180.00000	4.32844
180.00000	4.33198
180.00000	4.33408
180.00000	4.33070
180.00000	4.33295
180.00000	4.32812
180.00000	4.33005
180.00000	4.33505
180.00000	4.33311
180.00000	4.32941
180.00000	4.33392
180.00000	4.33472
179.98333	4.33086
180.00000	4.33263
180.00000	4.32989
180.00000	4.32989
180.00000	4.33569
180.00000	4.33488
180.00000	4.33376
180.00000	4.33215
180.00000	4.32925
180.00000	4.33263
180.00000	4.32844
180.00000	4.32828
180.00000	4.32618
180.00000	4.33279
180.00000	4.33440
180.00000	4.33279
180.00000	4.32683
180.00000	4.33343
180.00000	4.33311
180.00000	4.33263
180.00000	4.33086
180.00000	4.33247
180.00000	4.33795
180.00000	4.33182
180.00000	4.33424
180.00000	4.33198
180.00000	4.33279
180.00000	4.32715
180.00000	4.32941
180.00000	4.33279
180.00000	4.32908
180.00000	4.32522
180.00000	4.33150
180.00000	4.33134
180.00000	4.33166
180.00000	4.33456
180.00000	4.33376
180.00000	4.33070
180.00000	4.33376
180.00000	4.33134
180.00000	4.33279
180.00000	4.33215
180.00000	4.33150
180.00000	4.32957
180.00000	4.32699
180.01667	4.33070
180.01667	4.33279
180.01667	4.33505
180.01667	4.33118
180.01667	4.33440
180.01667	4.32860
180.01667	4.33279
180.01667	4.32989
180.03333	4.33005
180.03333	4.33150
180.03333	4.33118
180.05000	4.33198
180.05000	4.33343
180.05000	4.33215
180.06667	4.32683
180.06667	4.33005
180.06667	4.32828
180.06667	4.32908
180.06667	4.33488
180.08333	4.32796
180.08333	4.33053
180.08333	4.33102
180.08333	4.32957
180.10000	4.33231
180.10000	4.33327
180.11667	4.33118
180.11667	4.32941
180.11667	4.32957
180.16667	4.32635
180.75000	4.32586
181.50000	4.33086
181.78333	4.32651
181.78333	4.32989
181.78333	4.33456
181.78333	4.33150
181.78333	4.32828
181.78333	4.33053
181.95000	4.33263
182.31667	4.33118
182.60000	4.33150
182.65000	4.32538
182.65000	4.33247
182.66667	4.33053
182.76667	4.32780
182.93333	4.33102
183.08333	4.32796
183.23333	4.32844
183.36667	4.33231
183.43333	4.33311
183.45000	4.32715
183.56667	4.33472
183.71667	4.33424
183.98333	4.33505
184.06667	4.33472
184.11667	4.33102
184.16667	4.33424
184.21667	4.33231
184.30000	4.32828
184.38333	4.33327
184.51667	4.32973
184.61667	4.33070
184.68333	4.32957
184.71667	4.32651
184.75000	4.33311
184.85000	4.33360
185.03333	4.33392
185.20000	4.32812
185.31667	4.33343
185.40000	4.33343
185.50000	4.33440
185.60000	4.32941
185.75000	4.33215
185.96667	4.32908
186.11667	4.32989
186.20000	4.33231
186.23333	4.33408
186.28333	4.33505
186.31667	4.33086
186.38333	4.33360
186.46667	4.33086
186.66667	4.33311
186.83333	4.32796
186.96667	4.32957
187.06667	4.33182
187.15000	4.32957
187.23333	4.33215
187.31667	4.32699
187.40000	4.33424
187.46667	4.33021
187.61667	4.33021
187.83333	4.33086
187.98333	4.32796
188.06667	4.32796
188.21667	4.32989
188.45000	4.32892
188.63333	4.33118
188.75000	4.32973
188.83333	4.32892
188.96667	4.33086
189.08333	4.33215
189.16667	4.32925
189.23333	4.33231
189.28333	4.32925
189.40000	4.33376
189.53333	4.27688
189.63333	4.19133
189.71667	4.08338
189.90000	4.01813
190.10000	3.88601
190.30000	3.74536
190.40000	3.62130
190.51667	3.55251
190.66667	3.45149
190.85000	3.38752
191.00000	3.29682
191.10000	3.24155
191.20000	3.25235
191.28333	3.19161
191.38333	3.10525
191.48333	3.04886
191.60000	3.03227
191.70000	3.02550
191.75000	3.00746
191.80000	2.96702
191.85000	2.90773
191.91667	2.86439
191.96667	2.82153
192.00000	2.83120
192.03333	2.80477
192.06667	2.78028
192.11667	2.74113
192.16667	2.72696
192.23333	2.83861
192.36667	2.96540
192.41667	2.96202
192.45000	3.00665
192.50000	2.96218
192.51667	2.92126
192.53333	2.96814
192.56667	2.94510
192.60000	2.91546
192.63333	2.87663
192.66667	2.83990
192.75000	2.74838
192.95000	2.69844
193.15000	2.60242
193.31667	2.41907
193.35000	2.31483
193.40000	2.22879
193.50000	2.17804
193.60000	2.10280
193.70000	2.06430
193.80000	2.15259
193.86667	2.21478
193.88333	2.23572
193.93333	2.26343
194.08333	2.15162
194.26667	2.20720
194.40000	2.06752
194.48333	1.99502
194.55000	1.92123
194.61667	1.88240
194.68333	1.82279
194.76667	1.78316
194.83333	1.73386
194.90000	1.71211
194.93333	1.71259
195.00000	1.67070
195.10000	1.70163
195.25000	1.67215
195.33333	1.71001
195.38333	1.67908
195.40000	1.72612
195.40000	1.72016
195.41667	1.69052
195.43333	1.66490
195.46667	1.64847
195.50000	1.61624
195.53333	1.60029
195.56667	1.58467
195.65000	1.55857
195.71667	1.53698
195.78333	1.50218
195.91667	1.47849
196.08333	1.47044
196.23333	1.40309
196.33333	1.36185
196.43333	1.30224
196.53333	1.22087
196.60000	1.16738
196.61667	1.15933
196.61667	1.15256
196.63333	1.15965
196.63333	1.15756
196.63333	1.18366
196.63333	1.26147
196.61667	1.42935
196.61667	0.25581
196.61667	0.04105
196.61667	0.02848
196.61667	0.03428
196.61667	0.12418
196.61667	0.24550
196.61667	0.26467
196.61667	1.04736
196.61667	1.24504
196.61667	1.25374
196.61667	1.28790
196.61667	1.43757
196.61667	1.46029
196.63333	1.44273
196.63333	1.44901
196.63333	1.40164
196.63333	1.35121
196.63333	1.34719
196.63333	1.35250
196.65000	1.34670
196.65000	1.33059
196.66667	1.30256
196.70000	1.28484
197.05000	1.14805
197.58333	0.97469
197.86667	0.84290
197.90000	0.76895
197.93333	0.66278
198.00000	0.54775
198.10000	0.35248
198.18333	0.05426
198.28333	0.00593
198.36667	0.00158
198.41667	0.00190
198.48333	0.00190
198.53333	0.00190
198.56667	0.00110
198.61667	0.00061
198.68333	0.02977
198.80000	0.03074
198.88333	0.31365
198.95000	0.49845
199.00000	0.43433
199.05000	0.36714
199.15000	0.26065
199.35000	0.19411
199.53333	0.17349
199.63333	0.07956
199.70000	0.02397
199.80000	0.00545
199.86667	-0.00116
199.96667	0.00287
200.13333	0.12596
200.35000	0.15351
200.46667	0.34362
200.53333	0.33073
200.58333	0.31736
200.66667	0.27934
200.76667	0.25050
200.83333	0.20136
200.88333	0.17268
200.98333	0.11484
201.10000	0.10662
201.23333	0.14368
201.35000	0.19040
201.40000	0.15979
201.46667	0.12708
201.56667	0.10243
201.66667	0.05104
201.80000	0.01785
201.88333	0.00045
202.00000	0.00158
202.16667	-0.00438
202.26667	-0.00148
202.36667	0.01672
202.46667	0.01431
202.56667	-0.00503
202.63333	-0.00068
202.71667	0.01672
202.80000	-0.00052
202.86667	-0.00084
202.95000	0.06119
203.08333	0.03316
203.18333	0.00383
203.31667	0.00061
203.48333	0.01270
203.66667	0.01012
203.81667	0.00835
203.93333	0.01318
204.00000	0.01060
204.06667	0.00287
204.11667	-0.00213
204.15000	0.00061
204.20000	0.00174
204.25000	0.00206
204.35000	0.00093
204.50000	-0.00342
204.58333	-0.00325
204.68333	-0.00148
204.78333	-0.00116
204.86667	-0.00213
204.90000	-0.00229
204.96667	-0.00277
205.08333	-0.00035
205.21667	0.00045
205.31667	-0.00406
205.38333	-0.00068
205.46667	-0.00035
205.65000	-0.00084
205.80000	-0.00277
205.91667	-0.00116
206.00000	-0.00245
206.03333	-0.00116
206.08333	-0.00454
206.15000	-0.00583
206.21667	0.00255
206.33333	-0.00132
206.45000	-0.00454
206.61667	0.00013
206.70000	-0.00245
206.76667	-0.00325
206.86667	-0.00358
207.00000	-0.00325
207.11667	-0.00293
207.23333	-0.00035
207.30000	-0.00019
207.33333	-0.00100
207.33333	-0.00068
207.35000	-0.00180
207.36667	0.00206
207.36667	0.00464
207.38333	0.00351
207.41667	0.00206
207.45000	0.00206
207.50000	0.00464
207.60000	0.00110
207.75000	0.00770
207.95000	0.00899
208.10000	0.02268
208.20000	0.03171
208.28333	0.02236
208.36667	0.00963
208.53333	0.00077
208.71667	0.01769
208.90000	0.02349
209.03333	0.06296
209.15000	0.07940
209.25000	0.07633
209.33333	0.07343
209.40000	0.05861
209.45000	0.05716
209.50000	0.04170
209.56667	0.06280
209.60000	0.05555
209.65000	0.04782
209.75000	0.02397
209.90000	0.04508
210.01667	0.09792
210.10000	0.10775
210.16667	0.12902
210.21667	0.13804
210.25000	0.14191
210.30000	0.14465
210.35000	0.14593
210.40000	0.15093
210.46667	0.15447
210.60000	0.16817
210.73333	0.16946
210.85000	0.16833
210.95000	0.16124
211.06667	0.17445
211.18333	0.19330
211.28333	0.21070
211.38333	0.22601
211.50000	0.23600
211.63333	0.23986
211.78333	0.25565
211.91667	0.25130
212.06667	0.28272
212.15000	0.28723
212.20000	0.26854
212.23333	0.25887
212.30000	0.16172
212.40000	0.16076
212.55000	0.17413
212.65000	0.12435
212.71667	0.11967
212.80000	0.09728
212.88333	0.09438
212.93333	0.03316
212.95000	0.02945
212.95000	0.01189
212.95000	0.00464
212.95000	0.00432
212.95000	0.00818
212.95000	0.01721
212.95000	0.02607
212.95000	0.03428
212.95000	0.14432
212.95000	0.32541
212.95000	0.31929
212.95000	0.30527
212.95000	0.28401
212.96667	0.28868
212.96667	0.29029
212.98333	0.28981
212.98333	0.29029
213.00000	0.28610
213.01667	0.29287
213.01667	0.29835
213.05000	0.29980
213.13333	0.30656
213.31667	0.33170
213.51667	0.35586
213.70000	0.35828
213.83333	0.38599
213.93333	0.40114
214.01667	0.40533
214.16667	0.40871
214.30000	0.41999
214.40000	0.41306
214.51667	0.42611
214.60000	0.42466
214.68333	0.43030
214.78333	0.44786
214.88333	0.43884
215.00000	0.45350
215.08333	0.47718
215.16667	0.49442
215.26667	0.52310
215.36667	0.53937
215.48333	0.57868
215.65000	0.61719
215.81667	0.66262
215.98333	0.69323
216.10000	0.69581
216.20000	0.68179
216.26667	0.62573
216.36667	0.52632
216.45000	0.43046
216.55000	0.53438
216.68333	0.48201
216.80000	0.63942
216.91667	0.56273
217.00000	0.71015
217.05000	0.74140
217.11667	0.82518
217.15000	0.83662
217.20000	0.85386
217.23333	0.84838
217.25000	0.82518
217.28333	0.80279
217.30000	0.79924
217.31667	0.81036
217.36667	0.79135
217.45000	0.76525
217.55000	0.78555
217.65000	0.77830
217.73333	0.78700
217.81667	0.78716
217.85000	0.76477
217.86667	0.76928
217.88333	0.75542
217.90000	0.74801
217.90000	0.75768
217.91667	0.75413
217.93333	0.73287
217.95000	0.74527
218.00000	0.75752
218.03333	0.76412
218.11667	0.78458
218.21667	0.76976
218.35000	0.79554
218.55000	0.74769
218.76667	0.75510
218.98333	0.65295
219.16667	0.67035
219.28333	0.70870
219.38333	0.65618
219.48333	0.67406
219.61667	0.39630
219.75000	0.13772
219.88333	0.13836
219.98333	0.28852
220.05000	0.42724
220.15000	0.64732
220.28333	0.85338
220.43333	1.00353
220.53333	1.03269
220.66667	1.03543
220.78333	1.04172
220.88333	1.07458
221.00000	1.16062
221.08333	1.19510
221.15000	1.20847
221.25000	1.23409
221.36667	1.26776
221.51667	1.31110
221.66667	1.36362
221.76667	1.39391
221.85000	1.41630
221.93333	1.44579
221.98333	1.41856
222.05000	1.42146
222.06667	1.43644
222.06667	1.41598
222.08333	1.40148
222.08333	1.35025
222.08333	1.34815
222.08333	1.34702
222.08333	1.35572
222.08333	1.35572
222.10000	1.35105
222.10000	1.34783
222.10000	1.34638
222.10000	1.29096
222.10000	1.24134
222.10000	1.18897
222.11667	1.13113
222.11667	1.16610
222.13333	1.21217
222.13333	1.23586
222.15000	1.24697
222.15000	1.26856
222.18333	1.28032
222.35000	1.35363
222.66667	1.38070
222.76667	1.41759
222.78333	1.43145
222.81667	1.45223
222.86667	1.47253
222.93333	1.47849
223.05000	1.50121
223.20000	1.50620
223.33333	1.49976
223.41667	1.41485
223.46667	1.43016
223.56667	1.40905
223.70000	1.32866
223.80000	1.31561
223.91667	1.17190
223.98333	1.09617
224.08333	1.05074
224.23333	1.16416
224.36667	1.41211
224.50000	1.59514
224.63333	1.69841
224.78333	1.75899
225.00000	1.80845
225.16667	1.81344
225.30000	1.83600
225.40000	1.85823
225.50000	1.88321
225.60000	1.90335
225.68333	1.92751
225.80000	1.94652
225.90000	2.01081
226.01667	2.04770
226.11667	2.07558
226.18333	2.08943
226.25000	2.10168
226.35000	2.08202
226.46667	2.07396
226.55000	2.05286
226.61667	2.05334
226.66667	1.84100
226.70000	1.26840
226.71667	0.87529
226.71667	0.19217
226.73333	0.20007
226.73333	0.05910
226.75000	0.06651
226.78333	0.08922
226.80000	0.09583
226.81667	0.11017
226.83333	0.12515
226.85000	0.12886
226.86667	0.15319
226.88333	0.14674
226.88333	0.25823
226.90000	0.26242
226.90000	0.56579
226.91667	1.04832
226.91667	1.07990
226.91667	1.05074
226.93333	1.16755
226.93333	1.14886
226.96667	1.39584
227.01667	1.52103
227.16667	1.77542
227.36667	2.07268
227.56667	2.19077
227.71667	2.22863
227.83333	2.25328
227.93333	2.29356
228.08333	2.36526
228.25000	2.42535
228.40000	2.44775
228.51667	2.45032
228.63333	2.44968
228.75000	2.47755
228.86667	2.43389
229.01667	2.44227
229.13333	2.45629
229.23333	2.48029
229.31667	2.49382
229.38333	2.52234
229.45000	2.55005
229.50000	2.58614
229.55000	2.60773
229.60000	2.63931
229.66667	2.66380
229.73333	2.68362
229.86667	2.72148
230.00000	2.74548
230.15000	2.74387
230.28333	2.73340
230.35000	2.77690
230.41667	2.79897
230.48333	2.82878
230.53333	2.85101
230.58333	2.86680
230.65000	2.88501
230.71667	2.91304
230.81667	2.94881
230.98333	3.04338
231.10000	3.04918
231.21667	3.05273
231.35000	2.96508
231.45000	2.99070
231.56667	2.92319
231.65000	2.92706
231.71667	2.92609
231.76667	2.93898
231.85000	2.94478
231.95000	2.96669
232.05000	2.98377
232.15000	2.99392
232.23333	2.99344
232.30000	3.01616
232.35000	3.00423
232.41667	3.00117
232.50000	3.02212
232.56667	2.89226
232.63333	2.95993
232.70000	2.81976
232.83333	2.56616
232.98333	2.48770
233.11667	2.33271
233.25000	1.70679
233.35000	1.70663
233.45000	0.51198
233.55000	0.82309
233.61667	0.37407
233.66667	0.32139
233.71667	0.48636
233.76667	0.66745
233.80000	0.95633
233.81667	1.80410
233.85000	2.51074
233.86667	2.82491
233.88333	2.99714
233.88333	3.08640
233.90000	3.16776
233.91667	3.23157
233.93333	3.29762
233.95000	3.29521
233.96667	3.29859
234.00000	3.29150
234.03333	3.29811
234.08333	3.31712
234.13333	3.35111
234.18333	3.35208
234.21667	3.35627
234.25000	3.35562
234.26667	3.36030
234.30000	3.37109
234.35000	3.36706
234.41667	3.37834
234.51667	3.39687
234.65000	3.43811
234.73333	3.46679
234.81667	3.53188
234.88333	3.55234
234.95000	3.58086
235.05000	3.58602
235.11667	3.58570
235.18333	3.62694
235.21667	3.65063
235.26667	3.71942
235.31667	3.80320
235.35000	3.82785
235.36667	3.84187
235.38333	3.84654
235.38333	3.84139
235.41667	3.84090
235.46667	3.82141
235.48333	3.84396
235.53333	3.84074
235.56667	3.84735
235.60000	3.87151
235.60000	3.82366
235.61667	3.81077
235.65000	3.78081
235.70000	3.76727
235.76667	3.71829
235.83333	3.63161
235.90000	3.64660
235.96667	3.63983
236.03333	3.65079
236.08333	3.68526
236.11667	3.72635
236.20000	3.79837
236.30000	3.84155
236.43333	3.87893
236.55000	3.91485
236.66667	3.91985
236.78333	4.01765
236.91667	4.10127
237.01667	4.11448
237.10000	4.01088
237.16667	3.99477
237.25000	4.01636
237.33333	4.02554
237.48333	4.05309
237.70000	4.05567
237.91667	3.98204
238.05000	3.99944
238.13333	4.02474
238.20000	4.05486
238.25000	4.12656
238.28333	4.17586
238.33333	4.19342
238.43333	4.18327
238.51667	4.21453
238.61667	4.21211
238.73333	4.25626
238.83333	4.29444
238.93333	4.30588
239.05000	4.32296
239.16667	4.30862
239.30000	4.32554
239.43333	4.32522
239.56667	4.32506
239.70000	4.27737
239.76667	4.28574
239.86667	4.32715
239.93333	4.32844
240.00000	4.32812
240.06667	4.32618
240.15000	4.32328
240.20000	4.32763
240.26667	4.32618
240.35000	4.20841
240.46667	3.96109
240.56667	3.72409
240.65000	4.13703
240.71667	4.16652
240.78333	4.32860
240.83333	4.33005
240.88333	4.32570
240.90000	4.32506
240.95000	4.32361
241.01667	4.30089
241.06667	4.22533
241.10000	4.15846
241.15000	4.28993
241.20000	4.32731
241.25000	4.32844
241.35000	4.32989
241.51667	4.33086
241.65000	4.32248
241.80000	4.32747
241.91667	4.32876
242.03333	4.32763
242.18333	4.19568
242.30000	2.70376
242.40000	0.76912
242.46667	1.79878
242.51667	3.09961
242.55000	3.49499
242.58333	4.32683
242.60000	4.32183
242.61667	4.32022
242.61667	4.32828
242.61667	4.33150
242.61667	4.33005
242.63333	4.32409
242.63333	4.32667
242.65000	4.32345
242.65000	4.32844
242.66667	4.33021
242.71667	4.32908
242.75000	4.32876
242.80000	4.32651
242.88333	4.33005
242.95000	4.32538
243.00000	4.33037
243.03333	4.33102
243.06667	4.32973
243.11667	4.32377
243.18333	4.32892
243.26667	4.32328
243.33333	4.32860
243.38333	4.33102
243.43333	4.33086
243.51667	4.33037
243.56667	4.33005
243.61667	4.33021
243.66667	4.32731
243.71667	4.32812
243.75000	4.32635
243.78333	4.32554
243.81667	4.32908
243.85000	4.32973
243.86667	4.32538
243.88333	4.33070
243.90000	4.32973
243.91667	4.32635
243.93333	4.32618
243.95000	4.32715
243.98333	4.33295
244.01667	4.33182
244.10000	4.32957
244.20000	4.33150
244.28333	4.32908
244.36667	4.32957
244.43333	4.33488
244.48333	4.32731
244.53333	4.33005
244.56667	4.32989
244.58333	4.32973
244.63333	4.32812
244.71667	4.33118
244.85000	4.33231
244.96667	4.32892
245.05000	4.33182
245.16667	4.32618
245.26667	4.33070
245.41667	4.33150
245.65000	4.33134
245.83333	4.33070
245.98333	4.32876
246.10000	4.33102
246.20000	4.33198
246.30000	4.33198
246.43333	4.32957
246.56667	4.32892
246.63333	4.32908
246.73333	4.32892
246.86667	4.33231
247.01667	4.32618
247.16667	4.32602
247.23333	4.33215
247.30000	4.33166
247.40000	4.33311
247.48333	4.32570
247.56667	4.33215
247.63333	4.32892
247.70000	4.33053
247.76667	4.33070
247.86667	4.32699
248.01667	4.32586
248.15000	4.33215
248.26667	4.33102
248.38333	4.32651
248.53333	4.33263
248.66667	4.33360
248.75000	4.32635
248.83333	4.33343
248.90000	4.32828
248.96667	4.32780
249.05000	4.32957
249.11667	4.33070
249.18333	4.32989
249.25000	4.33440
249.31667	4.32973
249.41667	4.33472
249.53333	4.33360
249.63333	4.32780
249.70000	4.32425
249.75000	4.33118
249.78333	4.33021
249.81667	4.33408
249.83333	4.32941
249.85000	4.33198
249.86667	4.32908
249.88333	4.33070
249.91667	4.32941
249.96667	4.33263
250.06667	4.32957
250.18333	4.33488
250.31667	4.33134
250.50000	4.33327
250.68333	4.33198
250.81667	4.33086
251.00000	4.33070
251.10000	4.32635
251.16667	4.33086
251.23333	4.33215
251.28333	4.32747
251.31667	4.33279
251.33333	4.32957
251.36667	4.32957
251.38333	4.33311
251.41667	4.33408
251.43333	4.33053
251.45000	4.32957
251.50000	4.32763
251.56667	4.33166
251.63333	4.32747
251.68333	4.33166
251.76667	4.33086
251.85000	4.32602
251.93333	4.33053
252.00000	4.32844
252.08333	4.32796
252.18333	4.32941
252.26667	4.32828
252.35000	4.32860
252.41667	4.32731
252.50000	4.33295
252.58333	4.32957
252.65000	4.32892
252.73333	4.33215
252.80000	4.33198
252.83333	4.32522
252.86667	4.33198
252.90000	4.33102
252.93333	4.32618
253.00000	4.33327
253.06667	4.32892
253.15000	4.32860
253.25000	4.32860
253.35000	4.32699
253.43333	4.32860
253.51667	4.32876
253.58333	4.33102
253.65000	4.33215
253.70000	4.33424
253.75000	4.32925
253.83333	4.33118
253.91667	4.33037
254.00000	4.33053
254.10000	4.33102
254.20000	4.32586
254.28333	4.32618
254.36667	4.32780
254.45000	4.33263
254.53333	4.33247
254.60000	4.32715
254.68333	4.32683
254.75000	4.32844
254.81667	4.33037
254.90000	4.33086
254.96667	4.32618
255.01667	4.33150
255.05000	4.33182
255.10000	4.33086
255.15000	4.32651
255.20000	4.32651
255.25000	4.33053
255.31667	4.32908
255.38333	4.33392
255.48333	4.33118
255.58333	4.32973
255.65000	4.33070
255.70000	4.33279
255.76667	4.32780
255.81667	4.33134
255.86667	4.33053
255.90000	4.33021
255.93333	4.33005
255.96667	4.32780
256.05000	4.32715
256.15000	4.33102
256.31667	4.32715
256.45000	4.33118
256.51667	4.33295
256.58333	4.33247
256.63333	4.32731
256.66667	4.32876
256.70000	4.33311
256.73333	4.33231
256.76667	4.32957
256.83333	4.33408
256.91667	4.33231
256.98333	4.32973
257.06667	4.33102
257.10000	4.33215
257.15000	4.33295
257.20000	4.33150
257.26667	4.33327
257.36667	4.32957
257.48333	4.33086
257.58333	4.33231
257.73333	4.32973
257.90000	4.33037
258.01667	4.33376
258.11667	4.33198
258.18333	4.33456
258.26667	4.33376
258.35000	4.33295
258.43333	4.32763
258.46667	4.33166
258.51667	4.32941
258.60000	4.33263
258.73333	4.32957
258.91667	4.33134
259.11667	4.32892
259.28333	4.32763
259.43333	4.33327
259.55000	4.32908
259.66667	4.33215
259.73333	4.33343
259.75000	4.32699
259.75000	4.33279
259.73333	4.32860
259.73333	4.33392
259.73333	4.32796
259.73333	4.32892
259.71667	4.32876
259.71667	4.32989
259.70000	4.32989
259.70000	4.33215
259.70000	4.32925
259.68333	4.33440
259.68333	4.32812
259.66667	4.32780
259.66667	4.33182
259.66667	4.33343
259.65000	4.32780
259.65000	0.72755
259.65000	0.09470
259.65000	0.10920
259.65000	0.12451
259.65000	0.13160
259.65000	0.13063
259.65000	0.12370
259.65000	0.12386
259.65000	0.12660
259.65000	0.12563
259.65000	0.12886
259.65000	0.12676
259.65000	0.12902
259.65000	0.12467
259.65000	0.12789
259.65000	0.12644
259.63333	0.12547
259.63333	0.12918
259.63333	0.12821
259.63333	0.13095
259.63333	0.13095
259.63333	0.12837
259.63333	0.12966
259.63333	0.12692
259.63333	0.12596
259.63333	0.13288
259.63333	0.12950
259.63333	0.13369
259.63333	0.12886
259.63333	0.13143
259.63333	0.12821
259.63333	0.12886
259.63333	0.13740
259.63333	0.13063
259.63333	0.12757
259.63333	0.13127
259.63333	0.13176
259.63333	0.13450
259.63333	0.13015
259.63333	0.13337
259.63333	0.13417
259.63333	0.13240
259.63333	0.13208
259.63333	0.13240
259.63333	0.13401
259.63333	0.12918
259.63333	0.13337
259.63333	0.13385
259.63333	0.13224
259.63333	0.13208
259.61667	0.13015
259.61667	0.13482
259.61667	0.13546
259.61667	0.13321
259.61667	0.13691
259.61667	0.13482
259.61667	0.13466
259.61667	0.13772
259.61667	0.13321
259.61667	0.13514
259.61667	0.13369
259.61667	0.13498
259.61667	0.13498
259.61667	0.13240
259.61667	0.13337
259.61667	0.13820
259.61667	0.13675
259.61667	0.13369
259.61667	0.13256