Polarization of Light 'Brewsters' Data File Fri, Mar 26, 2021 3:07 PM
Sensor Position (Degrees)	Light Intensity (Volts)
180.00000	4.32812
180.00000	4.32957
180.00000	4.32973
180.00000	4.33198
180.00000	4.32602
180.00000	4.33070
180.00000	4.33247
180.00000	4.33215
180.00000	4.32715
180.00000	4.32409
180.00000	4.33134
180.00000	4.33086
180.00000	4.33231
180.00000	4.33118
180.00000	4.32828
180.00000	4.32892
180.00000	4.32828
180.00000	4.32618
180.00000	4.33070
180.00000	4.32747
180.00000	4.32586
180.00000	4.33215
180.00000	4.33215
180.00000	4.32780
180.00000	4.33037
180.00000	4.32796
180.00000	4.32763
180.00000	4.32651
180.00000	4.33021
180.00000	4.32651
180.00000	4.33215
180.00000	4.32892
180.00000	4.32908
180.00000	4.32876
180.00000	4.33311
180.00000	4.32908
180.00000	4.32941
180.00000	4.33182
180.00000	4.32941
180.00000	4.33247
180.00000	4.33053
180.00000	4.32651
180.00000	4.32763
180.00000	4.33118
180.00000	4.33086
180.00000	4.33021
180.00000	4.33569
180.00000	4.33150
180.00000	4.33150
180.00000	4.32941
180.00000	4.32780
180.00000	4.33182
180.00000	4.33247
180.00000	4.32973
180.00000	4.32876
180.00000	4.32860
180.01667	4.33118
180.01667	4.32973
180.01667	4.32554
180.01667	4.33182
180.01667	4.32651
180.01667	4.33231
180.01667	4.33021
180.01667	4.33231
180.01667	4.33215
180.01667	4.32989
180.01667	4.33327
180.01667	4.32780
180.01667	4.33231
180.01667	4.33086
180.01667	4.32925
180.01667	4.32908
180.03333	4.33295
180.03333	4.33150
180.01667	2.26456
180.01667	4.33070
180.01667	4.33005
180.03333	4.32908
180.03333	4.32941
180.03333	4.32812
180.03333	4.32973
180.03333	4.33037
180.03333	4.33198
180.03333	4.33166
180.03333	4.32618
180.03333	4.32570
180.03333	4.33440
180.05000	3.26395
180.05000	4.33118
180.05000	4.32989
180.06667	4.32908
180.06667	4.33343
180.06667	4.33279
180.08333	4.33247
180.08333	4.33424
180.10000	4.33021
180.11667	4.33343
180.13333	4.32892
180.15000	4.33182
180.16667	4.33053
180.55000	4.26270
181.16667	4.32989
181.40000	4.33215
181.41667	4.33182
181.48333	4.33102
181.81667	4.33102
182.08333	4.32715
182.21667	4.32715
182.36667	3.04580
182.66667	2.41987
182.91667	4.32747
183.11667	3.91808
183.31667	1.26292
183.60000	0.44222
183.93333	0.43787
184.31667	0.32010
184.53333	0.17703
184.71667	0.14046
184.98333	0.14658
185.26667	0.12982
185.48333	0.16189
185.66667	0.17800
185.80000	0.49426
185.85000	4.31765
185.86667	4.31845
185.88333	4.31684
185.88333	4.31603
185.90000	4.32103
185.91667	4.32200
185.93333	4.32328
186.08333	4.32393
186.26667	4.32280
186.36667	4.32667
186.43333	4.32667
186.50000	4.32602
186.61667	4.32183
186.75000	4.32715
186.85000	4.32618
186.98333	4.32087
187.16667	4.32667
187.30000	4.32860
187.40000	4.32570
187.53333	4.32892
187.71667	4.32635
187.93333	4.32828
188.06667	4.32280
188.15000	4.32731
188.23333	4.32892
188.33333	4.32409
188.46667	4.32345
188.61667	4.32715
188.75000	4.32860
188.83333	4.32651
188.93333	4.32731
189.10000	4.32892
189.28333	4.33102
189.46667	4.32957
189.68333	4.32892
189.93333	4.32618
190.20000	4.32425
190.43333	4.04342
190.65000	3.89471
190.83333	3.71990
191.00000	3.55251
191.18333	3.39719
191.33333	3.29359
191.50000	3.12571
191.71667	2.91643
191.91667	2.44807
192.08333	1.72483
192.20000	0.95053
192.30000	0.51488
192.43333	0.19620
192.56667	0.10098
192.71667	0.42675
192.88333	0.96632
193.01667	0.79860
193.08333	2.49479
193.15000	2.56391
193.18333	2.53185
193.23333	2.47191
193.31667	2.39748
193.41667	2.33948
193.53333	2.26134
193.66667	2.24184
193.86667	2.18127
194.05000	2.10538
194.18333	2.05286
194.33333	1.96247
194.46667	1.86661
194.60000	1.74916
194.76667	1.52473
194.95000	0.99290
195.20000	0.73995
195.35000	0.93152
195.43333	0.43819
195.50000	0.31816
195.70000	0.05217
195.86667	0.02945
195.98333	0.69871
196.08333	0.31671
196.15000	0.27595
196.20000	0.19878
196.23333	0.16527
196.28333	0.11307
196.38333	0.40613
196.53333	1.14048
196.63333	1.15707
196.66667	1.12598
196.70000	1.12292
196.73333	1.21878
196.76667	1.22007
196.80000	1.23570
196.85000	1.21088
196.93333	1.26454
197.13333	1.25938
197.36667	1.25036
197.48333	1.22538
197.55000	1.25680
197.61667	1.17012
197.76667	1.21121
197.95000	1.12501
198.15000	1.00337
198.31667	1.02883
198.43333	1.02383
198.58333	0.99193
198.73333	0.93345
198.88333	0.88882
198.98333	0.84049
199.06667	0.82695
199.15000	0.80988
199.28333	0.76058
199.41667	0.73593
199.56667	0.67857
199.68333	0.64409
199.80000	0.62073
199.98333	0.60510
200.18333	0.61912
200.35000	0.62057
200.50000	0.59366
200.60000	0.57836
200.66667	0.55596
200.71667	0.53953
200.78333	0.51762
200.83333	0.49668
200.90000	0.47944
201.01667	0.44399
201.15000	0.40742
201.23333	0.38084
201.31667	0.36472
201.43333	0.33137
201.56667	0.31397
201.71667	0.29432
201.80000	0.29416
201.85000	0.28449
201.91667	0.28771
201.98333	0.31994
202.05000	0.31816
202.10000	0.31107
202.15000	0.29770
202.21667	0.28320
202.30000	0.26242
202.38333	0.25114
202.45000	0.25017
202.48333	0.25710
202.55000	0.23922
202.63333	0.21972
202.73333	0.21441
202.85000	0.19217
202.95000	0.17332
203.01667	0.17220
203.06667	0.16317
203.13333	0.15544
203.25000	0.16060
203.35000	0.16108
203.40000	0.15415
203.43333	0.14529
203.46667	0.14400
203.55000	0.13031
203.66667	0.11162
203.78333	0.10147
203.95000	0.10904
204.11667	0.10131
204.25000	0.08971
204.38333	0.08777
204.56667	0.07875
204.73333	0.06731
204.90000	0.06377
205.01667	0.05748
205.08333	0.05346
205.11667	0.05088
205.18333	0.04266
205.28333	0.03767
205.41667	0.03928
205.56667	0.03445
205.70000	0.03267
205.70000	0.03203
205.71667	0.02929
205.76667	0.02494
205.85000	0.03058
206.03333	0.02252
206.28333	0.01801
206.51667	0.01286
206.70000	0.00770
206.80000	0.00351
206.90000	0.00593
206.95000	0.00400
206.98333	0.00883
207.06667	0.00690
207.18333	0.00706
207.28333	0.00545
207.33333	0.00609
207.36667	0.00786
207.45000	0.00319
207.56667	0.00255
207.71667	0.01125
207.88333	0.00206
208.00000	0.00931
208.10000	0.00432
208.21667	0.01253
208.31667	0.01833
208.45000	0.01640
208.58333	0.02913
208.65000	0.02703
208.68333	0.02752
208.71667	0.03461
208.78333	0.03525
208.88333	0.03654
209.03333	0.03718
209.18333	0.03767
209.28333	0.03106
209.31667	0.03477
209.35000	0.03235
209.36667	0.02413
209.38333	0.02301
209.40000	0.01415
209.41667	0.01608
209.43333	0.00093
209.45000	0.00255
209.50000	0.00142
209.63333	0.08326
209.71667	0.00061
209.76667	0.00110
209.85000	0.00013
209.95000	-0.00132
210.08333	0.00093
210.23333	0.00222
210.36667	0.00464
210.45000	0.00287
210.51667	-0.00164
210.63333	0.00335
210.71667	0.01560
210.83333	-0.00084
210.96667	-0.00100
211.05000	0.06087
211.13333	0.07215
211.16667	0.08101
211.20000	0.09470
211.21667	0.09857
211.23333	0.10227
211.26667	0.10115
211.38333	0.11693
211.48333	0.11693
211.58333	0.13530
211.66667	0.14884
211.75000	0.15947
211.86667	0.17010
212.01667	0.19250
212.16667	0.20974
212.28333	0.23132
212.35000	0.24002
212.41667	0.25162
212.48333	0.25887
212.53333	0.26194
212.60000	0.25775
212.66667	0.26177
212.80000	0.27080
212.93333	0.29094
213.10000	0.29110
213.26667	0.33299
213.40000	0.35087
213.53333	0.36585
213.65000	0.37858
213.75000	0.39356
213.83333	0.39759
213.93333	0.40468
214.06667	0.40291
214.23333	0.39953
214.35000	0.41580
214.41667	0.42788
214.45000	0.43771
214.48333	0.44754
214.51667	0.44866
214.58333	0.47090
214.66667	0.44576
214.85000	0.45060
214.95000	0.47138
214.96667	0.48056
214.98333	0.49410
215.03333	0.50199
215.10000	0.51859
215.18333	0.53969
215.23333	0.54855
215.28333	0.55500
215.36667	0.56434
215.48333	0.56853
215.63333	0.58754
215.73333	0.60462
215.81667	0.60671
215.86667	0.61541
215.91667	0.61139
216.03333	0.61525
216.16667	0.60494
216.28333	0.59737
216.38333	0.62814
216.43333	0.64071
216.48333	0.65634
216.55000	0.67454
216.58333	0.68550
216.65000	0.69855
216.70000	0.72078
216.81667	0.73222
216.90000	0.74720
216.98333	0.75719
217.05000	0.76750
217.11667	0.77830
217.16667	0.78313
217.23333	0.79183
217.30000	0.79570
217.35000	0.78893
217.40000	0.77701
217.40000	0.78184
217.40000	0.78265
217.40000	0.77653
217.40000	0.78458
217.40000	0.77782
217.41667	0.77991
217.41667	0.77427
217.41667	0.77669
217.41667	0.77975
217.41667	0.78619
217.41667	0.79264
217.41667	0.80150
217.41667	0.80585
217.41667	0.81068
217.41667	0.81809
217.41667	0.81616
217.41667	0.83034
217.41667	0.81713
217.41667	0.81825
217.41667	0.81117
217.41667	0.80988
217.41667	0.80794
217.41667	0.77862
217.41667	0.46639
217.41667	0.06570
217.41667	0.00238
217.41667	0.00287
217.41667	0.00110
217.41667	-0.00084
217.41667	-0.00180
217.41667	0.06183
217.41667	0.72835
217.41667	0.82212
217.41667	0.72078
217.41667	0.67583
217.41667	0.67229
217.41667	0.67712
217.43333	0.67970
217.43333	0.68179
217.45000	0.68195
217.45000	0.68389
217.48333	0.68792
217.50000	0.69323
217.55000	0.70016
217.63333	0.72223
217.80000	0.73738
218.06667	0.73190
218.30000	0.76058
218.36667	0.77427
218.38333	0.77057
218.45000	0.78378
218.56667	0.80730
218.75000	0.84065
219.01667	0.86449
219.23333	0.89801
219.35000	0.91009
219.46667	0.92217
219.56667	0.95536
219.65000	0.98130
219.75000	1.00901
219.85000	1.04204
219.96667	1.05106
220.15000	1.03656
220.31667	1.02528
220.45000	1.04011
220.56667	1.04510
220.68333	1.07007
220.76667	1.09215
220.80000	1.09521
220.83333	1.10487
220.98333	1.12678
221.21667	1.03318
221.45000	1.03898
221.58333	0.63749
221.65000	0.64377
221.68333	0.69307
221.71667	0.82422
221.76667	0.93393
221.86667	1.13113
222.00000	1.21733
222.15000	1.26276
222.31667	1.17737
222.51667	1.09247
222.65000	0.93039
222.73333	0.71949
222.85000	0.52890
223.00000	0.41838
223.15000	0.68969
223.31667	0.90944
223.48333	1.20106
223.63333	0.57127
223.75000	0.35184
223.81667	0.07215
223.93333	0.04846
224.06667	0.03702
224.16667	0.07988
224.25000	0.15061
224.33333	0.43126
224.41667	0.71933
224.50000	0.87545
224.55000	0.93732
224.60000	0.98597
224.65000	1.08264
224.73333	1.26808
224.83333	1.46721
224.93333	1.62172
225.03333	1.69841
225.11667	1.72644
225.18333	1.74111
225.28333	1.75142
225.38333	1.77236
225.51667	1.80990
225.65000	1.86291
225.81667	1.93831
225.95000	1.99905
226.10000	2.04255
226.23333	2.12568
226.35000	2.16999
226.46667	2.18690
226.55000	2.17095
226.65000	2.21123
226.75000	2.23492
226.83333	2.24942
226.95000	2.26762
227.05000	2.28776
227.15000	2.30113
227.23333	2.31257
227.31667	2.32739
227.36667	2.34447
227.43333	2.27729
227.48333	2.26730
227.58333	2.28712
227.68333	2.29276
227.80000	2.31177
227.85000	2.31821
227.91667	2.31144
228.01667	2.32208
228.16667	2.45629
228.28333	2.50849
228.38333	2.52492
228.45000	2.53362
228.53333	2.54458
228.60000	2.55038
228.66667	2.52299
228.73333	2.47739
228.80000	2.48029
228.86667	2.45741
228.93333	2.46337
228.98333	2.44162
229.00000	2.44211
229.01667	2.42809
229.05000	2.39845
229.06667	2.39828
229.08333	2.39265
229.15000	2.39893
229.30000	2.43566
229.51667	2.42729
229.71667	2.47127
229.86667	2.48061
230.00000	2.48819
230.08333	2.49576
230.15000	2.51864
230.21667	2.56004
230.31667	2.62433
230.40000	2.66042
230.45000	2.66267
230.50000	2.69779
230.55000	2.71133
230.56667	2.71890
230.60000	2.74581
230.65000	2.75870
230.70000	2.76852
230.73333	2.77674
230.78333	2.79221
230.90000	2.82072
231.03333	2.81315
231.18333	2.83152
231.28333	2.84392
231.38333	2.79736
231.48333	2.81444
231.58333	2.84183
231.65000	2.86938
231.70000	2.89016
231.75000	2.91771
231.80000	2.94398
231.88333	2.96927
231.93333	2.99134
232.00000	3.00166
232.05000	3.01261
232.13333	3.02421
232.23333	2.95896
232.33333	3.01793
232.41667	3.05643
232.48333	3.08672
232.53333	3.10702
232.56667	3.12056
232.58333	3.12136
232.61667	3.14344
232.66667	3.18226
232.75000	3.22641
232.78333	3.24139
232.80000	3.16889
232.85000	3.15149
232.93333	3.17405
233.01667	3.19016
233.10000	3.20804
233.15000	3.24188
233.20000	3.26492
233.21667	3.23511
233.25000	3.24897
233.31667	3.27458
233.38333	3.33275
233.46667	3.38897
233.51667	3.40412
233.55000	3.41314
233.58333	3.41008
233.61667	3.31116
233.65000	3.32437
233.66667	3.32179
233.68333	3.34257
233.71667	3.33710
233.76667	3.33645
233.85000	3.29279
233.95000	3.27813
234.08333	3.17195
234.18333	3.21014
234.25000	3.22577
234.26667	3.22689
234.30000	3.21110
234.35000	3.18065
234.40000	3.16277
234.45000	3.17743
234.51667	3.21997
234.58333	3.24768
234.63333	3.28038
234.68333	3.29392
234.71667	3.32163
234.75000	3.33613
234.78333	3.35643
234.85000	3.36352
234.95000	3.35740
235.08333	3.34048
235.20000	3.35047
235.28333	3.35659
235.31667	3.37480
235.35000	3.38076
235.40000	3.42458
235.48333	3.45922
235.56667	3.41765
235.63333	3.35192
235.66667	2.54586
235.68333	2.03836
235.70000	1.93041
235.71667	2.09668
235.73333	2.19174
235.75000	2.56504
235.78333	2.82814
235.81667	2.89951
235.85000	2.93415
235.90000	3.00568
235.96667	3.15407
236.08333	3.34660
236.21667	3.23753
236.31667	3.02888
236.38333	3.20047
236.43333	3.38720
236.51667	3.56411
236.63333	3.60680
236.81667	3.71459
236.96667	3.75132
237.11667	3.79208
237.23333	3.80288
237.30000	3.83140
237.35000	3.83639
237.38333	3.86684
237.41667	3.90470
237.46667	3.93338
237.51667	3.94756
237.55000	3.96963
237.56667	3.97076
237.58333	3.97495
237.61667	3.98446
237.63333	3.99155
237.66667	4.01024
237.70000	4.01604
237.71667	4.02957
237.75000	4.02296
237.76667	4.03617
237.80000	4.02667
237.88333	3.99847
237.98333	3.98236
238.06667	3.97334
238.13333	4.00476
238.20000	4.06840
238.25000	4.10110
238.28333	4.11802
238.31667	4.12414
238.36667	4.13574
238.38333	4.14283
238.41667	4.15975
238.48333	4.17280
238.55000	4.17264
238.61667	4.18940
238.76667	4.18634
238.86667	4.21662
238.95000	4.22710
239.00000	4.23950
239.05000	4.20712
239.10000	4.19826
239.11667	4.14847
239.15000	4.16781
239.18333	4.17457
239.21667	4.19584
239.25000	4.21485
239.30000	4.23725
239.35000	4.26883
239.43333	4.29589
239.51667	4.32667
239.56667	4.32812
239.61667	4.32602
239.66667	4.32377
239.73333	4.32683
239.81667	4.32731
239.88333	4.32328
239.95000	4.32570
240.03333	4.32554
240.08333	4.33037
240.13333	4.32747
240.18333	4.32377
240.23333	4.32780
240.28333	4.31893
240.35000	4.32844
240.43333	4.32570
240.50000	4.32941
240.60000	4.32780
240.65000	4.32860
240.73333	4.32554
240.80000	4.32457
240.88333	4.32957
240.93333	4.32586
240.98333	4.32812
241.00000	4.32957
241.03333	4.32731
241.06667	4.32393
241.15000	4.32715
241.20000	4.33166
241.23333	4.32973
241.26667	4.32989
241.31667	4.32425
241.43333	4.33037
241.58333	4.33102
241.76667	4.33215
241.85000	4.32602
241.91667	4.33070
241.96667	4.32812
242.00000	4.32651
242.01667	4.32860
242.01667	4.32312
242.03333	4.33037
242.05000	4.33134
242.05000	4.32731
242.06667	4.32296
242.08333	4.32763
242.08333	4.32409
242.10000	4.32860
242.11667	4.32812
242.15000	4.33053
242.16667	4.32925
242.21667	4.32441
242.33333	4.33021
242.48333	4.32441
242.58333	4.33150
242.63333	4.33134
242.68333	4.32973
242.75000	4.32796
242.83333	4.32667
242.98333	4.33134
243.11667	4.32844
243.20000	4.32715
243.26667	4.32860
243.31667	4.32506
243.35000	4.32731
243.40000	4.32506
243.48333	4.32860
243.65000	4.32699
243.81667	4.32699
243.98333	4.33263
244.11667	4.17071
244.23333	3.99445
244.31667	4.23596
244.38333	4.33005
244.45000	4.33021
244.50000	4.32780
244.58333	4.33198
244.65000	4.32892
244.73333	4.32812
244.85000	4.32876
245.00000	4.32699
245.16667	4.32812
245.26667	4.32989
245.36667	3.73215
245.41667	3.21545
245.45000	3.21207
245.46667	3.57071
245.46667	3.69123
245.48333	4.13268
245.50000	4.24289
245.51667	4.33037
245.53333	4.32586
245.58333	4.32876
245.68333	4.32892
245.80000	4.32554
245.95000	4.32876
246.10000	4.32941
246.23333	4.32651
246.28333	4.32973
246.31667	4.33166
246.35000	4.32457
246.38333	4.32876
246.43333	4.32699
246.50000	4.32860
246.53333	4.32812
246.56667	4.32683
246.65000	3.68446
246.80000	1.57822
246.96667	0.35844
247.11667	0.24937
247.20000	0.28514
247.25000	0.34910
247.30000	0.46252
247.36667	0.93861
247.40000	1.87773
247.41667	1.82021
247.41667	1.57580
247.41667	1.43113
247.41667	1.74014
247.40000	1.70534
247.40000	1.96618
247.38333	3.63484
247.38333	4.17022
247.38333	4.16410
247.36667	4.32216
247.36667	4.32296
247.36667	4.31765
247.35000	4.32022
247.35000	4.32683
247.35000	4.32747
247.35000	4.32409
247.35000	4.32699
247.35000	4.32925
247.35000	4.32586
247.35000	4.32538
247.36667	4.32618
247.36667	4.32941
247.35000	4.33102
247.35000	4.32957
247.35000	4.32747
247.35000	4.32635
247.35000	4.32876
247.35000	4.32522
247.35000	4.32667
247.35000	4.32699
247.33333	4.33070
247.33333	4.32715
247.33333	4.32860
247.33333	4.32844
247.33333	4.32683
247.33333	4.32731
247.33333	4.32828
247.33333	4.32683
247.33333	4.33037
247.33333	4.32925
247.33333	4.32941
247.33333	4.32377
247.33333	4.33070
247.33333	4.32473
247.33333	4.32699
247.33333	4.32393
247.33333	4.32892
247.33333	4.33070
247.33333	4.32683
247.33333	4.32457
247.33333	4.32925
247.33333	4.32393
247.33333	4.32393
247.33333	4.33021
247.33333	4.32538
247.33333	4.32989
247.33333	4.32876
247.33333	4.33198
247.33333	4.32586
247.33333	4.33150
247.33333	4.32844
247.33333	4.32651
247.31667	4.32941
247.31667	4.32763
247.31667	4.32554
247.31667	4.32763
247.31667	4.33086
247.31667	4.32683
247.31667	4.32925
247.31667	4.32973
247.31667	4.32876
247.31667	4.32425
247.31667	4.32892
247.31667	4.32925
247.31667	4.32796
247.31667	4.32506
247.31667	4.33311
247.31667	4.33360