Polarization of Light 'Brewsters' Data File Fri, Mar 26, 2021 3:27 PM
Sensor Position (Degrees)	Light Intensity (Volts)
180.00000	4.36534
180.00000	4.36679
180.00000	4.36856
180.00000	4.36646
180.00000	4.36646
180.00000	4.36759
180.00000	4.36775
180.00000	4.36582
180.00000	4.36582
180.00000	4.36727
180.00000	4.36437
180.00000	4.36807
180.00000	4.36469
180.00000	4.36759
180.00000	4.36534
180.00000	4.36630
180.00000	4.36888
180.00000	4.37001
180.00000	4.36727
180.00000	4.36534
180.00000	4.36276
180.00000	4.36969
180.00000	4.36920
180.00000	4.36598
180.00000	4.36759
180.00000	4.36904
180.00000	4.37114
180.00000	4.36840
180.00000	4.36405
180.00000	4.36276
180.00000	4.36421
180.00000	4.36646
180.00000	4.36775
180.00000	4.36969
180.00000	4.36807
180.00000	4.36969
180.00000	4.36711
180.00000	4.36582
180.00000	4.36501
180.00000	4.36904
180.00000	4.36743
180.00000	4.37033
180.00000	4.36405
180.00000	4.36679
180.00000	4.36807
180.00000	4.36453
180.00000	4.36582
180.00000	4.36824
180.00000	4.36920
180.00000	4.36662
180.00000	4.36598
180.00000	4.36517
180.00000	4.37001
180.00000	4.36904
180.00000	4.36695
180.00000	4.36936
180.00000	4.36679
180.00000	4.36437
180.00000	4.36662
180.00000	4.36517
180.00000	4.36598
180.00000	4.36695
180.00000	4.36501
180.00000	4.36679
180.00000	4.36904
180.00000	4.36662
180.00000	4.36824
180.00000	4.36711
180.00000	4.36630
180.00000	4.36453
180.00000	4.36501
180.00000	4.36598
180.00000	4.36614
180.00000	4.36582
180.00000	4.36260
180.00000	4.36582
180.00000	4.36759
180.00000	4.36904
180.00000	4.36340
180.00000	4.36517
180.00000	4.36969
180.00000	4.36743
180.00000	4.36856
180.00000	4.36179
180.00000	4.36453
180.00000	4.36614
180.00000	4.36550
180.00000	4.36517
180.00000	4.36969
180.00000	4.36002
180.00000	4.36807
180.00000	4.36630
180.00000	4.36517
180.01667	4.37049
180.01667	4.36421
180.01667	4.36920
180.01667	4.36179
180.01667	4.36775
180.01667	4.36646
180.01667	4.36308
180.01667	4.36888
180.01667	4.36807
180.03333	4.36517
180.03333	4.36163
180.03333	4.36389
180.03333	4.36872
180.03333	4.36662
180.05000	4.36759
180.05000	4.36340
180.05000	4.36679
180.06667	4.36517
180.06667	4.36115
180.06667	4.36340
180.06667	4.36614
180.06667	4.36759
180.08333	4.36082
180.08333	4.36389
180.08333	4.36646
180.10000	4.36614
180.11667	4.36115
180.13333	4.36469
180.15000	4.36727
180.55000	4.36469
181.11667	4.36517
181.53333	4.36888
181.60000	4.36743
181.60000	4.36582
181.61667	4.36791
181.68333	4.36308
181.81667	4.36372
182.13333	4.36550
182.45000	4.36630
182.55000	4.36727
182.60000	4.36888
182.70000	4.36969
182.88333	4.36405
183.01667	4.36082
183.08333	4.35970
183.16667	4.33891
183.35000	4.31748
183.48333	4.31861
183.55000	4.32312
183.66667	4.32908
183.90000	4.32296
184.15000	4.32328
184.28333	4.32216
184.33333	4.32248
184.38333	4.33037
184.43333	4.32554
184.51667	4.32200
184.58333	4.32135
184.65000	4.32328
184.71667	4.32280
184.78333	4.32377
184.83333	4.32248
184.90000	4.32715
184.95000	4.32618
185.03333	4.32328
185.10000	4.32183
185.18333	4.32522
185.30000	4.32457
185.46667	4.32312
185.63333	4.32038
185.73333	4.32586
185.80000	4.32248
185.86667	4.32925
186.00000	4.32957
186.15000	4.32796
186.33333	4.32264
186.50000	4.32554
186.61667	4.32860
186.68333	4.32312
186.81667	4.32651
187.00000	4.32941
187.25000	4.32345
187.38333	4.32876
187.48333	4.32828
187.58333	4.32763
187.68333	4.32796
187.78333	4.32941
187.91667	4.32312
188.05000	4.32554
188.15000	4.33086
188.25000	4.32780
188.31667	4.33086
188.40000	4.32618
188.51667	4.32651
188.63333	4.33424
188.75000	4.32989
188.83333	4.33118
188.91667	4.33343
189.06667	4.33021
189.21667	4.32957
189.33333	4.33198
189.46667	4.32892
189.61667	4.33118
189.76667	4.33343
189.93333	4.33021
190.08333	4.32973
190.23333	4.33118
190.36667	4.33102
190.45000	4.33295
190.48333	4.33295
190.51667	4.33360
190.66667	4.32763
190.83333	4.33376
190.95000	4.32264
191.01667	4.32570
191.06667	4.32763
191.18333	4.32812
191.31667	4.33472
191.45000	4.33295
191.53333	4.32844
191.60000	4.33182
191.65000	4.32876
191.73333	4.33392
191.80000	4.32957
191.93333	4.32989
192.05000	4.32763
192.16667	4.32860
192.25000	4.32715
192.35000	4.33037
192.41667	4.33505
192.46667	4.33311
192.51667	4.33295
192.63333	4.33537
192.75000	4.33215
192.90000	4.32908
193.00000	4.33343
193.08333	4.32989
193.18333	4.33376
193.28333	4.32731
193.35000	4.33440
193.43333	4.33070
193.51667	4.33408
193.66667	4.33343
193.83333	4.33086
194.03333	4.33456
194.18333	4.32925
194.30000	4.33327
194.40000	4.33537
194.51667	4.33182
194.70000	4.33005
194.90000	4.32957
195.10000	4.33134
195.26667	4.32731
195.43333	4.33070
195.55000	4.32844
195.61667	4.33102
195.70000	4.33070
195.86667	4.32780
196.00000	4.33505
196.15000	4.32763
196.26667	4.32892
196.33333	4.33215
196.40000	4.32989
196.51667	4.33295
196.63333	4.32747
196.80000	4.32892
196.93333	4.33424
197.05000	4.33231
197.15000	4.33408
197.26667	4.33166
197.36667	4.33263
197.50000	4.33311
197.61667	4.32860
197.71667	4.33295
197.81667	4.32586
197.90000	4.33537
198.00000	4.33327
198.10000	4.33488
198.20000	4.33150
198.30000	4.33343
198.36667	4.33198
198.41667	4.32844
198.50000	4.33086
198.55000	4.33472
198.63333	4.33633
198.73333	4.33424
198.86667	4.32796
198.95000	4.33070
199.03333	4.33053
199.10000	4.33021
199.21667	4.33569
199.36667	4.33505
199.56667	4.33198
199.65000	4.33424
199.71667	4.33118
199.80000	4.33182
199.86667	4.32892
199.96667	4.33102
200.10000	4.32651
200.20000	4.33086
200.25000	4.33263
200.33333	4.32860
200.45000	4.32908
200.51667	4.33424
200.56667	4.33037
200.61667	4.32667
200.68333	4.23419
200.78333	4.05003
200.85000	3.88134
200.91667	3.79805
201.00000	3.81561
201.13333	3.64756
201.30000	3.57796
201.41667	3.69993
201.53333	3.62646
201.60000	3.77775
201.65000	3.76888
201.68333	3.70138
201.75000	3.54284
201.81667	3.39123
201.88333	3.37576
201.95000	3.19693
202.01667	3.09236
202.10000	3.25058
202.20000	3.11717
202.35000	3.06932
202.55000	2.91933
202.68333	2.73485
202.76667	2.60467
202.85000	2.51670
202.91667	2.44227
202.98333	2.34898
203.08333	2.15549
203.15000	1.99985
203.26667	1.84438
203.36667	1.66667
203.51667	1.71033
203.68333	1.67489
203.81667	1.46915
203.88333	1.35427
203.96667	1.25680
204.05000	1.17302
204.15000	1.31657
204.30000	1.28580
204.43333	1.13275
204.51667	1.14531
204.60000	1.02641
204.68333	0.98307
204.78333	0.91009
204.91667	0.78925
205.06667	0.68969
205.16667	0.79135
205.25000	0.74575
205.35000	0.67664
205.43333	0.61058
205.56667	0.53099
205.66667	0.46204
205.75000	0.45446
205.83333	0.43932
205.98333	0.45914
206.08333	0.44158
206.15000	0.42176
206.26667	0.45060
206.35000	0.43062
206.41667	0.40371
206.48333	0.38116
206.55000	0.35973
206.65000	0.35216
206.78333	0.32831
206.93333	0.33218
207.08333	0.32364
207.23333	0.31575
207.38333	0.31881
207.53333	0.32139
207.65000	0.33476
207.76667	0.33653
207.86667	0.35345
207.98333	0.37552
208.06667	0.39373
208.20000	0.45011
208.30000	0.49780
208.38333	0.52551
208.46667	0.56354
208.55000	0.58786
208.63333	0.57385
208.70000	0.60430
208.75000	0.62959
208.78333	0.61364
208.86667	0.53728
208.93333	0.57578
208.96667	0.62121
209.00000	0.65150
209.01667	0.64844
209.03333	0.63104
209.05000	0.63572
209.08333	0.65247
209.11667	0.66794
209.13333	0.65892
209.15000	0.62283
209.18333	0.60655
209.23333	0.60301
209.30000	0.62025
209.35000	0.64280
209.38333	0.66584
209.45000	0.68147
209.56667	0.72127
209.70000	0.71385
209.80000	0.69291
209.93333	0.79280
210.06667	0.90783
210.20000	0.97824
210.28333	1.04897
210.38333	1.11164
210.48333	1.16013
210.60000	1.26051
210.70000	1.28081
210.80000	1.36894
210.91667	1.47108
211.05000	1.60787
211.18333	1.73402
211.36667	1.72064
211.55000	1.78541
211.75000	1.88208
211.93333	2.06849
212.11667	2.16709
212.25000	2.33368
212.31667	2.41005
212.38333	2.48593
212.46667	2.47949
212.58333	2.55811
212.71667	2.57390
212.81667	2.59758
212.93333	2.54119
213.06667	2.29823
213.21667	1.82923
213.31667	1.81038
213.36667	2.04400
213.40000	2.26585
213.46667	2.49382
213.53333	2.67169
213.61667	2.91594
213.73333	2.91127
213.81667	2.77287
213.86667	2.84489
213.90000	2.96911
213.91667	2.88308
213.98333	3.06014
214.06667	2.78963
214.16667	2.79946
214.23333	2.55473
214.28333	2.90579
214.35000	3.17969
214.40000	3.47565
214.46667	3.64031
214.58333	3.87925
214.73333	4.15121
214.88333	4.11979
215.03333	4.21453
215.13333	4.08580
215.23333	4.32506
215.35000	4.25175
215.43333	4.32135
215.50000	4.31813
215.55000	4.32183
215.65000	4.20341
215.76667	3.68043
215.85000	3.66206
215.91667	4.32635
215.96667	4.32425
216.03333	3.32147
216.06667	3.06675
216.11667	3.17034
216.20000	3.74584
216.28333	3.58827
216.40000	4.23370
216.60000	2.91353
216.76667	2.75435
216.91667	1.46528
216.98333	1.87402
217.05000	0.81149
217.15000	0.85531
217.26667	0.49297
217.38333	0.48491
217.51667	0.39373
217.66667	0.31542
217.80000	0.35715
217.90000	0.44673
217.98333	0.70306
218.06667	1.33156
218.11667	2.14904
218.15000	2.55698
218.18333	3.06594
218.21667	3.47195
218.21667	3.88295
218.23333	4.18053
218.23333	4.31877
218.23333	4.31877
218.25000	4.32506
218.25000	4.32119
218.26667	4.32135
218.28333	4.32055
218.28333	4.32296
218.30000	4.32490
218.31667	4.32409
218.31667	4.32425
218.35000	4.32506
218.40000	4.32780
218.48333	4.32828
218.55000	4.32812
218.63333	4.32473
218.68333	4.32908
218.76667	4.32570
218.93333	4.32747
219.10000	4.32618
219.20000	4.32941
219.26667	4.32780
219.36667	4.32925
219.51667	4.32151
219.61667	4.32425
219.71667	4.32409
219.78333	4.32812
219.85000	4.32763
219.88333	4.33134
219.91667	4.32812
219.95000	4.32860
220.06667	4.32763
220.23333	4.33198
220.48333	4.32973
220.70000	4.33118
220.83333	4.33005
220.93333	4.32844
221.03333	4.32828
221.16667	4.32860
221.26667	4.33070
221.35000	4.33182
221.43333	4.32747
221.48333	4.32989
221.51667	4.33053
221.58333	4.32957
221.71667	4.33053
221.90000	4.33295
222.11667	4.32763
222.26667	4.32860
222.38333	4.32635
222.45000	4.33086
222.50000	4.32844
222.56667	4.32570
222.65000	4.32941
222.78333	4.32844
222.88333	4.33053
222.98333	4.33231
223.06667	4.32635
223.15000	4.32538
223.23333	4.32957
223.31667	4.33424
223.36667	4.32602
223.40000	4.32731
223.46667	4.32957
223.51667	4.32844
223.56667	4.32747
223.63333	4.33263
223.70000	4.33005
223.76667	4.32715
223.83333	4.32908
223.93333	4.33118
224.03333	4.33360
224.13333	4.33343
224.20000	4.33005
224.25000	4.33408
224.30000	4.33279
224.33333	4.32941
224.40000	4.32989
224.48333	4.32973
224.55000	4.33231
224.63333	4.33166
224.78333	4.32683
224.95000	4.33102
225.06667	4.33070
225.15000	4.33086
225.23333	4.32989
225.31667	4.33392
225.41667	4.33295
225.53333	4.33086
225.66667	4.32828
225.80000	4.32876
225.88333	4.32715
226.03333	4.32892
226.15000	4.32844
226.25000	4.32908
226.33333	4.34149
226.40000	4.32908
226.46667	4.32812
226.61667	4.33537
226.85000	4.32731
227.05000	4.33295
227.16667	4.33311
227.23333	4.32763
227.28333	4.33505
227.40000	4.33037
227.50000	4.32796
227.60000	4.33279
227.68333	4.33295
227.76667	4.33037
227.85000	4.33279
227.95000	4.32828
228.08333	4.33037
228.20000	4.32892
228.31667	4.33327
228.45000	4.33633
228.55000	4.33472
228.63333	4.32957
228.71667	4.33086
228.83333	4.32973
228.95000	4.32345
229.03333	4.32651
229.13333	4.33231
229.20000	4.33198
229.25000	4.32989
229.31667	4.33021
229.36667	4.33198
229.41667	4.33070
229.46667	4.33150
229.51667	4.33021
229.55000	4.33102
229.58333	4.32957
229.60000	4.33247
229.63333	4.32844
229.68333	4.33182
229.73333	4.33263
229.81667	4.33215
229.95000	4.33182
230.06667	4.32941
230.16667	4.33472
230.26667	4.32812
230.31667	4.33215
230.35000	4.33118
230.38333	4.33070
230.40000	4.33166
230.41667	4.32763
230.43333	4.33118
230.45000	4.33247
230.45000	4.33215
230.48333	4.33037
230.53333	4.33150
230.65000	4.33182
230.78333	4.32812
230.91667	4.32941
231.06667	4.32989
231.16667	4.33070
231.26667	4.33247
231.31667	4.32780
231.38333	4.32892
231.46667	4.33392
231.55000	4.32699
231.60000	4.33247
231.63333	4.33343
231.66667	4.33472
231.71667	4.32522
231.80000	4.32586
231.88333	4.32973
232.00000	4.33295
232.08333	4.32796
232.15000	4.33392
232.26667	4.33343
232.40000	4.33021
232.48333	4.33021
232.55000	4.32296
232.61667	4.33343
232.70000	4.33070
232.80000	4.33021
232.96667	4.33247
233.20000	4.32989
233.41667	4.33086
233.56667	4.32828
233.71667	4.32651
233.80000	4.33231
233.86667	4.33231
233.91667	4.32860
233.95000	4.33150
234.00000	4.32618
234.05000	4.32538
234.08333	4.32941
234.13333	4.33182
234.16667	4.32812
234.18333	4.33392
234.21667	4.32973
234.25000	4.32715
234.28333	4.33360
234.31667	4.33279
234.33333	4.33279
234.38333	4.32844
234.41667	4.33182
234.45000	4.32715
234.51667	4.33150
234.63333	4.33392
234.73333	4.33392
234.81667	4.33231
234.88333	4.33086
234.98333	4.32844
235.15000	4.32973
235.30000	4.32989
235.40000	4.33327
235.46667	4.32989
235.50000	4.33021
235.56667	4.33311
235.61667	4.33182
235.68333	4.32941
235.75000	4.32973
235.81667	4.33021
235.90000	4.32828
236.00000	4.33327
236.06667	4.33279
236.15000	4.32538
236.23333	4.33134
236.31667	4.32941
236.43333	4.33021
236.56667	4.33360
236.66667	4.32844
236.73333	4.32828
236.78333	4.32812
236.80000	4.33327
236.85000	4.33021
236.88333	4.33134
236.95000	4.33472
237.00000	4.32828
237.06667	4.33279
237.15000	4.33037
237.25000	4.32876
237.35000	4.32715
237.43333	4.32586
237.48333	4.32828
237.53333	4.32876
237.58333	4.33166
237.65000	4.33166
237.71667	4.33488
237.78333	4.32683
237.85000	4.33134
237.95000	4.33440
238.01667	4.32860
238.08333	4.33343
238.13333	4.32312
238.18333	4.33037
238.23333	4.33279
238.28333	4.32908
238.35000	4.32892
238.45000	4.32925
238.58333	4.33134
238.75000	4.33118
238.88333	4.33166
238.96667	4.32796
239.08333	4.33311
239.20000	4.33070
239.28333	4.33118
239.35000	4.33086
239.41667	4.33166
239.45000	4.33360
239.48333	4.33134
239.55000	4.33279
239.61667	4.32941
239.68333	4.32763
239.75000	4.33134
239.85000	4.32780
239.98333	4.33053
240.15000	4.32731
240.31667	4.33392
240.46667	4.33343
240.60000	4.32908
240.68333	4.33360
240.76667	4.33037
240.81667	4.33231
240.85000	4.33150
240.91667	4.33182
240.96667	4.33166
241.01667	4.33086
241.06667	4.33311
241.13333	4.33021
241.18333	4.33424
241.28333	4.33247
241.40000	4.33488
241.55000	4.33231
241.66667	4.32957
241.75000	4.32957
241.80000	4.32828
241.85000	4.32635
241.88333	4.32699
241.90000	4.33070
241.93333	4.32925
241.96667	4.33182
241.98333	4.32747
242.01667	4.32570
242.05000	4.32892
242.13333	4.33247
242.20000	4.33102
242.26667	4.32860
242.35000	4.33102
242.43333	4.33150
242.50000	4.33279
242.58333	4.33118
242.66667	4.32635
242.73333	4.32393
242.80000	4.33037
242.88333	4.32715
242.98333	4.32683
243.06667	4.33198
243.10000	4.32667
243.16667	4.32393
243.30000	4.32731
243.45000	4.33231
243.56667	4.32812
243.63333	4.32973
243.71667	4.33102
243.81667	4.32715
243.88333	4.33295
243.95000	4.32602
244.00000	4.33376
244.08333	4.32796
244.18333	4.32860
244.26667	4.33102
244.33333	4.33086
244.38333	4.32925
244.41667	4.32731
244.55000	4.32763
244.68333	4.33021
244.76667	4.32522
244.83333	4.32973
244.91667	4.32457
245.00000	4.33343
245.10000	4.33134
245.18333	4.33182
245.25000	4.33021
245.30000	4.32361
245.36667	4.32618
245.46667	4.33070
245.56667	4.33070
245.63333	4.32973
245.68333	4.32812
245.71667	4.32425
245.75000	4.32667
245.80000	4.33150
245.85000	4.33134
245.88333	4.33231
245.93333	4.33053
245.95000	4.32715
245.96667	4.32780
246.00000	4.32892
246.03333	4.32522
246.06667	4.32425
246.15000	4.32892
246.26667	4.32699
246.36667	4.32345
246.46667	4.32908
246.55000	4.33086
246.63333	4.33102
246.71667	4.32667
246.78333	4.32828
246.81667	4.32715
246.85000	4.32844
246.90000	4.32699
246.98333	4.33005
247.05000	4.32989
247.11667	4.32361
247.20000	4.32957
247.28333	4.32989
247.38333	4.32844
247.50000	4.33118
247.58333	4.32586
247.63333	4.32538
247.66667	4.32796
247.71667	4.32393
247.76667	4.32876
247.80000	4.33005
247.83333	4.32280
247.85000	4.33086
247.88333	4.33053
247.88333	4.32506
247.88333	4.32796
247.86667	4.32570
247.86667	4.32763
247.86667	4.32409
247.86667	4.32345
247.86667	4.32941
247.86667	4.32522
247.86667	4.32296
247.86667	4.33231
247.86667	4.32409
247.86667	4.32925
247.85000	4.32747
247.86667	3.34145
247.86667	0.45527
247.86667	0.31607
247.86667	0.32670
247.86667	0.32348
247.86667	0.41177
247.86667	0.55645
247.86667	0.80214
247.86667	0.86498
247.86667	0.54646
247.86667	0.45221
247.86667	0.45559
247.86667	0.61864
247.86667	2.33545
247.86667	4.31700
247.85000	4.31378
247.85000	4.31668
247.85000	4.31716
247.85000	4.32312
247.85000	4.31990
247.83333	4.32264
247.81667	4.32280
247.81667	4.32361
247.81667	4.32248
247.80000	4.32328
247.80000	4.32570
247.80000	4.32538
247.80000	4.32248
247.80000	4.31845
247.80000	4.32812
247.78333	4.31861
247.78333	4.32715
247.78333	4.32103
247.78333	4.32248
247.78333	4.32522
247.78333	4.32876
247.78333	4.32361
247.78333	4.32441
247.78333	4.32651
247.78333	4.32763
247.78333	4.32538
247.78333	4.32103
247.78333	4.32441
247.78333	4.32361
247.78333	4.32957
247.78333	4.32780
247.78333	4.32796
247.78333	4.32699
247.78333	4.32570
247.76667	4.32425
247.76667	4.32941
247.76667	4.32731
247.76667	4.32844
247.76667	4.32731
247.76667	4.32941
247.76667	4.32860
247.76667	4.32490
247.76667	4.32699
247.76667	4.32957
247.76667	4.32570
247.76667	4.32892
247.76667	4.32747
247.76667	4.32973
247.76667	4.32796
247.76667	4.32296
247.76667	4.32280
247.76667	4.32586
247.76667	4.32973
247.76667	4.32828
247.76667	4.32715
247.76667	4.33005
247.76667	4.32618
247.76667	4.32796
247.76667	4.32941
247.76667	4.32731
247.76667	4.32409
247.76667	4.32925
247.76667	4.32586
247.76667	4.32522
247.76667	4.32602
247.76667	4.32715
247.76667	4.32473
247.76667	4.32602
247.76667	4.32925
247.76667	4.32264
247.76667	4.32747
247.76667	4.32651
247.76667	4.32860
247.76667	4.32812
247.76667	4.33150